<svg width="24" height="25" viewBox="0 0 24 25" fill="none" xmlns="http://www.w3.org/2000/svg">
<g clip-path="url(#clip0_391_812)">
<path d="M8 7.77393H0.5V13.7739C0.5 15.4339 1.84 16.7739 3.5 16.7739H11.5L20.5 22.7739V1.77393L11.5 7.77393V16.7739" stroke="#A989F5" stroke-miterlimit="10"/>
<path d="M20 8.77393C21.93 8.77393 23.5 10.3439 23.5 12.2739C23.5 14.2039 21.93 15.7739 20 15.7739" stroke="#A989F5" stroke-miterlimit="10"/>
<path d="M11.5 23.7739H6.5L3.5 16.7739H8.5L11.5 23.7739Z" stroke="#A989F5" stroke-miterlimit="10"/>
</g>
<defs>
<clipPath id="clip0_391_812">
<rect width="24" height="24" fill="white" transform="translate(0 0.273926)"/>
</clipPath>
</defs>
</svg>
