<svg width="24" height="24" viewBox="0 0 24 24" fill="none" xmlns="http://www.w3.org/2000/svg">
<path d="M14.6626 3.53758V0.47998H9.33936V2.29678" stroke="#A989F5" stroke-width="0.92" stroke-linecap="round" stroke-linejoin="round"/>
<path d="M17.495 10.212L13.3022 12.696" stroke="#A989F5" stroke-width="0.92" stroke-linecap="round" stroke-linejoin="round"/>
<path d="M12.0042 14.5264C12.6217 14.5264 13.1222 14.0258 13.1222 13.4084C13.1222 12.7909 12.6217 12.2904 12.0042 12.2904C11.3868 12.2904 10.8862 12.7909 10.8862 13.4084C10.8862 14.0258 11.3868 14.5264 12.0042 14.5264Z" stroke="#A989F5" stroke-width="0.92" stroke-linecap="round" stroke-linejoin="round"/>
<path d="M12.0004 23.5201C9.4731 23.5183 7.03817 22.5698 5.17573 20.8614C3.31329 19.1531 2.1585 16.8089 1.93907 14.2912C1.71963 11.7734 2.45148 9.26484 3.99031 7.26005C5.52913 5.25526 7.76325 3.89977 10.2521 3.46086C12.741 3.02195 15.304 3.53147 17.4358 4.88896C19.5675 6.24645 21.1133 8.35338 21.7683 10.7943C22.4234 13.2352 22.1401 15.833 20.9743 18.0754C19.8086 20.3177 17.845 22.042 15.4708 22.9081" stroke="#A989F5" stroke-width="0.92" stroke-linecap="round" stroke-linejoin="round"/>
<path d="M4.17453 6.4756L3.11426 5.35041L5.03766 3.5376L6.27104 4.84792" stroke="#A989F5" stroke-width="0.92" stroke-linecap="round" stroke-linejoin="round"/>
<path d="M19.8797 6.4756L20.94 5.35041L19.0142 3.5376L17.7832 4.84792" stroke="#A989F5" stroke-width="0.92" stroke-linecap="round" stroke-linejoin="round"/>
</svg>
