<svg width="16" height="16" viewBox="0 0 16 16" fill="none" xmlns="http://www.w3.org/2000/svg">
<path d="M11.008 16H0.64C0.288 16 0 15.712 0 15.36V0.64C0 0.288 0.288 0 0.64 0H11.008C11.36 0 11.648 0.288 11.648 0.64V1.92C11.648 2.272 11.36 2.56 11.008 2.56C10.656 2.56 10.368 2.272 10.368 1.92V1.28H1.28V14.72H10.368V14.08C10.368 13.728 10.656 13.44 11.008 13.44C11.36 13.44 11.648 13.728 11.648 14.08V15.36C11.648 15.712 11.36 16 11.008 16Z" fill="#7225BA"/>
<path d="M11.5838 10.3042C11.4238 10.3042 11.2638 10.2402 11.1358 10.1122L9.82384 8.80016C9.56784 8.54416 9.56784 8.16016 9.82384 7.90416C10.0798 7.64816 10.4638 7.64816 10.7198 7.90416L11.5838 8.76816L12.4478 7.90416C12.7038 7.64816 13.0878 7.64816 13.3438 7.90416C13.5998 8.16016 13.5998 8.54416 13.3438 8.80016L12.0318 10.1122C11.9038 10.2722 11.7438 10.3042 11.5838 10.3042Z" fill="#7225BA"/>
<path d="M11.5834 10.3041C11.2314 10.3041 10.9434 10.0161 10.9434 9.66406V6.30406C10.9434 5.95206 11.2314 5.66406 11.5834 5.66406C11.9354 5.66406 12.2234 5.95206 12.2234 6.30406V9.66406C12.2234 10.0481 11.9354 10.3041 11.5834 10.3041Z" fill="#7225BA"/>
<path d="M5.85639 8.64011H3.04039C2.68839 8.64011 2.40039 8.35211 2.40039 8.00011C2.40039 7.64811 2.68839 7.36011 3.04039 7.36011H5.82439C6.17639 7.36011 6.46439 7.64811 6.46439 8.00011C6.46439 8.35211 6.20839 8.64011 5.85639 8.64011Z" fill="#7225BA"/>
<path d="M6.49639 6.30393H3.04039C2.68839 6.30393 2.40039 6.01593 2.40039 5.66393C2.40039 5.31193 2.68839 5.02393 3.04039 5.02393H6.46439C6.81639 5.02393 7.10439 5.31193 7.10439 5.66393C7.10439 6.01593 6.84839 6.30393 6.49639 6.30393Z" fill="#7225BA"/>
<path d="M6.49616 10.976H3.00816C2.65616 10.976 2.36816 10.688 2.36816 10.336C2.36816 9.98404 2.65616 9.69604 3.00816 9.69604H6.46416C6.81616 9.69604 7.10416 9.98404 7.10416 10.336C7.13616 10.688 6.84816 10.976 6.49616 10.976Z" fill="#7225BA"/>
<path d="M11.584 12.416C9.15197 12.416 7.16797 10.432 7.16797 7.99998C7.16797 5.56798 9.15197 3.58398 11.584 3.58398C14.016 3.58398 16 5.56798 16 7.99998C16 10.432 14.016 12.416 11.584 12.416ZM11.584 4.86398C9.85597 4.86398 8.44797 6.27198 8.44797 7.99998C8.44797 9.72798 9.85597 11.136 11.584 11.136C13.312 11.136 14.72 9.72798 14.72 7.99998C14.72 6.27198 13.312 4.86398 11.584 4.86398Z" fill="#7225BA"/>
</svg>
